/*
WARNING: Do NOT edit the input and output ports in this file in a text
editor if you plan to continue editing the block that represents it in
the Block Editor! File corruption is VERY likely to occur.
*/
/*
Copyright (C) 1991-2014 Altera Corporation. All rights reserved.
Your use of Altera Corporation's design tools, logic functions 
and other software and tools, and its AMPP partner logic 
functions, and any output files from any of the foregoing 
(including device programming or simulation files), and any 
associated documentation or information are expressly subject 
to the terms and conditions of the Altera Program License 
Subscription Agreement, the Altera Quartus II License Agreement,
the Altera MegaCore Function License Agreement, or other 
applicable license agreement, including, without limitation, 
that your use is for the sole purpose of programming logic 
devices manufactured by Altera and sold by Altera or its 
authorized distributors.  Please refer to the applicable 
agreement for further details.
*/
(header "graphic" (version "1.4"))
(pin
	(input)
	(rect 168 120 336 136)
	(text "INPUT" (rect 125 0 154 10)(font "Arial" (font_size 6)))
	(text "a" (rect 5 0 14 11)(font "Arial" ))
	(pt 168 8)
	(drawing
		(line (pt 84 12)(pt 109 12))
		(line (pt 84 4)(pt 109 4))
		(line (pt 113 8)(pt 168 8))
		(line (pt 84 12)(pt 84 4))
		(line (pt 109 4)(pt 113 8))
		(line (pt 109 12)(pt 113 8))
	)
	(text "VCC" (rect 128 7 149 17)(font "Arial" (font_size 6)))
)
(pin
	(input)
	(rect 168 152 336 168)
	(text "INPUT" (rect 125 0 154 10)(font "Arial" (font_size 6)))
	(text "c" (rect 5 0 12 11)(font "Arial" ))
	(pt 168 8)
	(drawing
		(line (pt 84 12)(pt 109 12))
		(line (pt 84 4)(pt 109 4))
		(line (pt 113 8)(pt 168 8))
		(line (pt 84 12)(pt 84 4))
		(line (pt 109 4)(pt 113 8))
		(line (pt 109 12)(pt 113 8))
	)
	(text "VCC" (rect 128 7 149 17)(font "Arial" (font_size 6)))
)
(pin
	(input)
	(rect 168 184 336 200)
	(text "INPUT" (rect 125 0 154 10)(font "Arial" (font_size 6)))
	(text "d" (rect 5 0 13 11)(font "Arial" ))
	(pt 168 8)
	(drawing
		(line (pt 84 12)(pt 109 12))
		(line (pt 84 4)(pt 109 4))
		(line (pt 113 8)(pt 168 8))
		(line (pt 84 12)(pt 84 4))
		(line (pt 109 4)(pt 113 8))
		(line (pt 109 12)(pt 113 8))
	)
	(text "VCC" (rect 128 7 149 17)(font "Arial" (font_size 6)))
)
(pin
	(output)
	(rect 688 224 864 240)
	(text "OUTPUT" (rect 1 0 41 10)(font "Arial" (font_size 6)))
	(text "x" (rect 90 0 97 11)(font "Arial" ))
	(pt 0 8)
	(drawing
		(line (pt 0 8)(pt 52 8))
		(line (pt 52 4)(pt 78 4))
		(line (pt 52 12)(pt 78 12))
		(line (pt 52 12)(pt 52 4))
		(line (pt 78 4)(pt 82 8))
		(line (pt 82 8)(pt 78 12))
		(line (pt 78 12)(pt 82 8))
	)
)
(symbol
	(rect 408 208 472 256)
	(text "AND2" (rect 1 0 29 10)(font "Arial" (font_size 6)))
	(text "instA2" (rect 3 37 34 48)(font "Arial" ))
	(port
		(pt 0 16)
		(input)
		(text "IN1" (rect 2 7 23 18)(font "Courier New" (bold))(invisible))
		(text "IN1" (rect 2 7 23 18)(font "Courier New" (bold))(invisible))
		(line (pt 0 16)(pt 14 16))
	)
	(port
		(pt 0 32)
		(input)
		(text "IN2" (rect 2 23 23 34)(font "Courier New" (bold))(invisible))
		(text "IN2" (rect 2 23 23 34)(font "Courier New" (bold))(invisible))
		(line (pt 0 32)(pt 14 32))
	)
	(port
		(pt 64 24)
		(output)
		(text "OUT" (rect 48 15 69 26)(font "Courier New" (bold))(invisible))
		(text "OUT" (rect 48 15 69 26)(font "Courier New" (bold))(invisible))
		(line (pt 42 24)(pt 64 24))
	)
	(drawing
		(line (pt 14 12)(pt 30 12))
		(line (pt 14 37)(pt 31 37))
		(line (pt 14 12)(pt 14 37))
		(arc (pt 31 37)(pt 30 12)(rect 18 12 43 37))
	)
)
(symbol
	(rect 408 280 472 328)
	(text "OR2" (rect 1 0 23 10)(font "Arial" (font_size 6)))
	(text "inst01" (rect 3 37 33 48)(font "Arial" ))
	(port
		(pt 0 32)
		(input)
		(text "IN2" (rect 2 23 23 34)(font "Courier New" (bold))(invisible))
		(text "IN2" (rect 2 23 23 34)(font "Courier New" (bold))(invisible))
		(line (pt 0 32)(pt 15 32))
	)
	(port
		(pt 0 16)
		(input)
		(text "IN1" (rect 2 7 23 18)(font "Courier New" (bold))(invisible))
		(text "IN1" (rect 2 7 23 18)(font "Courier New" (bold))(invisible))
		(line (pt 0 16)(pt 15 16))
	)
	(port
		(pt 64 24)
		(output)
		(text "OUT" (rect 48 15 69 26)(font "Courier New" (bold))(invisible))
		(text "OUT" (rect 48 15 69 26)(font "Courier New" (bold))(invisible))
		(line (pt 48 24)(pt 64 24))
	)
	(drawing
		(line (pt 14 36)(pt 25 36))
		(line (pt 14 13)(pt 25 13))
		(arc (pt 7 29)(pt 7 19)(rect -14 8 19 41))
		(arc (pt 49 24)(pt 25 13)(rect -6 13 57 76))
		(arc (pt 25 35)(pt 49 24)(rect -6 -27 57 36))
	)
)
(symbol
	(rect 608 208 672 256)
	(text "OR3" (rect 1 0 23 10)(font "Arial" (font_size 6)))
	(text "instO3" (rect 3 37 36 48)(font "Arial" ))
	(port
		(pt 0 24)
		(input)
		(text "IN2" (rect 2 15 23 26)(font "Courier New" (bold))(invisible))
		(text "IN2" (rect 2 15 23 26)(font "Courier New" (bold))(invisible))
		(line (pt 0 24)(pt 18 24))
	)
	(port
		(pt 0 32)
		(input)
		(text "IN3" (rect 2 24 23 35)(font "Courier New" (bold))(invisible))
		(text "IN3" (rect 2 24 23 35)(font "Courier New" (bold))(invisible))
		(line (pt 0 32)(pt 16 32))
	)
	(port
		(pt 0 16)
		(input)
		(text "IN1" (rect 2 7 23 18)(font "Courier New" (bold))(invisible))
		(text "IN1" (rect 2 7 23 18)(font "Courier New" (bold))(invisible))
		(line (pt 0 16)(pt 16 16))
	)
	(port
		(pt 64 24)
		(output)
		(text "OUT" (rect 47 15 68 26)(font "Courier New" (bold))(invisible))
		(text "OUT" (rect 47 15 68 26)(font "Courier New" (bold))(invisible))
		(line (pt 49 24)(pt 64 24))
	)
	(drawing
		(line (pt 14 13)(pt 25 13))
		(line (pt 14 36)(pt 25 36))
		(arc (pt 7 29)(pt 7 19)(rect -14 8 19 41))
		(arc (pt 49 24)(pt 25 13)(rect -6 13 57 76))
		(arc (pt 25 35)(pt 49 24)(rect -6 -27 57 36))
	)
)
(symbol
	(rect 416 144 464 176)
	(text "NOT" (rect 1 0 22 10)(font "Arial" (font_size 6)))
	(text "instN1" (rect 3 21 36 32)(font "Arial" ))
	(port
		(pt 0 16)
		(input)
		(text "IN" (rect 2 7 16 18)(font "Courier New" (bold))(invisible))
		(text "IN" (rect 2 7 16 18)(font "Courier New" (bold))(invisible))
		(line (pt 0 16)(pt 13 16))
	)
	(port
		(pt 48 16)
		(output)
		(text "OUT" (rect 32 7 53 18)(font "Courier New" (bold))(invisible))
		(text "OUT" (rect 32 7 53 18)(font "Courier New" (bold))(invisible))
		(line (pt 39 16)(pt 48 16))
	)
	(drawing
		(line (pt 13 25)(pt 13 7))
		(line (pt 13 7)(pt 31 16))
		(line (pt 13 25)(pt 31 16))
		(circle (rect 31 12 39 20))
	)
)
(symbol
	(rect 504 104 568 152)
	(text "AND2" (rect 1 0 29 10)(font "Arial" (font_size 6)))
	(text "instA1" (rect 3 37 34 48)(font "Arial" ))
	(port
		(pt 0 16)
		(input)
		(text "IN1" (rect 2 7 23 18)(font "Courier New" (bold))(invisible))
		(text "IN1" (rect 2 7 23 18)(font "Courier New" (bold))(invisible))
		(line (pt 0 16)(pt 14 16))
	)
	(port
		(pt 0 32)
		(input)
		(text "IN2" (rect 2 23 23 34)(font "Courier New" (bold))(invisible))
		(text "IN2" (rect 2 23 23 34)(font "Courier New" (bold))(invisible))
		(line (pt 0 32)(pt 14 32))
	)
	(port
		(pt 64 24)
		(output)
		(text "OUT" (rect 48 15 69 26)(font "Courier New" (bold))(invisible))
		(text "OUT" (rect 48 15 69 26)(font "Courier New" (bold))(invisible))
		(line (pt 42 24)(pt 64 24))
	)
	(drawing
		(line (pt 14 12)(pt 30 12))
		(line (pt 14 37)(pt 31 37))
		(line (pt 14 12)(pt 14 37))
		(arc (pt 31 37)(pt 30 12)(rect 18 12 43 37))
	)
)
(symbol
	(rect 408 72 472 120)
	(text "OR2" (rect 1 0 23 10)(font "Arial" (font_size 6)))
	(text "instO2" (rect 3 37 36 48)(font "Arial" ))
	(port
		(pt 0 32)
		(input)
		(text "IN2" (rect 2 23 23 34)(font "Courier New" (bold))(invisible))
		(text "IN2" (rect 2 23 23 34)(font "Courier New" (bold))(invisible))
		(line (pt 0 32)(pt 15 32))
	)
	(port
		(pt 0 16)
		(input)
		(text "IN1" (rect 2 7 23 18)(font "Courier New" (bold))(invisible))
		(text "IN1" (rect 2 7 23 18)(font "Courier New" (bold))(invisible))
		(line (pt 0 16)(pt 15 16))
	)
	(port
		(pt 64 24)
		(output)
		(text "OUT" (rect 48 15 69 26)(font "Courier New" (bold))(invisible))
		(text "OUT" (rect 48 15 69 26)(font "Courier New" (bold))(invisible))
		(line (pt 48 24)(pt 64 24))
	)
	(drawing
		(line (pt 14 36)(pt 25 36))
		(line (pt 14 13)(pt 25 13))
		(arc (pt 7 29)(pt 7 19)(rect -14 8 19 41))
		(arc (pt 49 24)(pt 25 13)(rect -6 13 57 76))
		(arc (pt 25 35)(pt 49 24)(rect -6 -27 57 36))
	)
)
(connector
	(pt 472 96)
	(pt 488 96)
)
(connector
	(pt 488 96)
	(pt 488 120)
)
(connector
	(pt 504 120)
	(pt 488 120)
)
(connector
	(pt 488 136)
	(pt 504 136)
)
(connector
	(pt 488 160)
	(pt 464 160)
)
(connector
	(pt 488 136)
	(pt 488 160)
)
(connector
	(pt 568 128)
	(pt 592 128)
)
(connector
	(pt 592 128)
	(pt 592 224)
)
(connector
	(pt 592 224)
	(pt 608 224)
)
(connector
	(pt 472 232)
	(pt 608 232)
)
(connector
	(pt 472 304)
	(pt 592 304)
)
(connector
	(pt 592 304)
	(pt 592 240)
)
(connector
	(pt 608 240)
	(pt 592 240)
)
(connector
	(pt 408 104)
	(pt 392 104)
)
(connector
	(pt 392 104)
	(pt 392 192)
)
(connector
	(pt 336 192)
	(pt 392 192)
)
(connector
	(pt 392 312)
	(pt 408 312)
)
(connector
	(pt 408 296)
	(pt 376 296)
)
(connector
	(pt 376 160)
	(pt 376 296)
)
(connector
	(pt 336 160)
	(pt 376 160)
)
(connector
	(pt 376 160)
	(pt 416 160)
)
(connector
	(pt 408 240)
	(pt 360 240)
)
(connector
	(pt 408 224)
	(pt 392 224)
)
(connector
	(pt 392 192)
	(pt 392 224)
)
(connector
	(pt 392 224)
	(pt 392 312)
)
(connector
	(pt 360 88)
	(pt 408 88)
)
(connector
	(pt 688 232)
	(pt 672 232)
)
(connector
	(pt 360 128)
	(pt 336 128)
)
(connector
	(pt 360 88)
	(pt 360 128)
)
(connector
	(pt 360 128)
	(pt 360 240)
)
(junction (pt 392 192))
(junction (pt 376 160))
(junction (pt 392 224))
(junction (pt 360 128))
(text "( (a OR d) AND ( NOT c ) ) OR ( d AND a ) OR ( c OR d ) " (rect 136 32 458 45)(font "Arial" (font_size 8)))
(text "Metrotek FPGA lessons, 2015" (rect 64 0 233 13)(font "Arial" (font_size 8)))
(text "Andrew Strokov" (rect 64 -16 156 -3)(font "Arial" (font_size 8)))
(text ", variant 1" (rect 56 32 112 45)(font "Arial" (font_size 8)))
(text "Lab 1" (rect 64 16 97 29)(font "Arial" (font_size 8)))
